<?xml version="1.0" encoding="utf-8"?>
<!-- Generator: Avocode 2.4.3-3630f5a - http://avocode.com -->
<svg height="38" width="29" xmlns:xlink="http://www.w3.org/1999/xlink" xmlns="http://www.w3.org/2000/svg" viewBox="0 0 29 38">
    <path fill="#ffffff" fill-rule="evenodd" d="M 10 37.22 C 7.56 37.22 5.23 36.76 3.09 35.93 C 3.09 35.93 3.09 32.18 3.09 32.18 C 5.17 33.2 7.52 33.78 10 33.78 C 18.58 33.78 25.54 26.97 25.54 18.57 C 25.54 10.17 18.58 3.37 10 3.37 C 7 3.37 1.45 3.38 0 3.38 C 0 3.38 0 0 0 0 C 0 0 -0.36 0 -0.36 0 C -0.36 0 -0.36 0 -0.36 0 C -0.36 0 6.57 0 10 0 C 20.49 0 29 8.33 29 18.61 C 29 28.89 20.49 37.22 10 37.22 Z" />
</svg>