<?xml version="1.0" encoding="utf-8"?>
<!-- Generator: Avocode 2.4.3-3630f5a - http://avocode.com -->
<svg height="39" width="28" xmlns:xlink="http://www.w3.org/1999/xlink" xmlns="http://www.w3.org/2000/svg" viewBox="0 0 28 39">
    <path fill="#ffffff" fill-rule="evenodd" d="M 0.27 0.64 C 0.27 0.64 4.11 0.64 4.11 0.64 C 4.11 0.64 4.11 37.38 4.11 37.38 C 4.11 37.38 0.27 37.38 0.27 37.38 C 0.27 37.38 0.27 0.64 0.27 0.64 Z" />
    <path fill="#ffffff" fill-rule="evenodd" d="M 13.54 38.2 C 10.99 38.2 8.61 37.53 6.57 36.38 C 6.57 36.38 6.57 32.41 6.57 32.41 C 8.4 33.97 10.85 34.93 13.54 34.93 C 19.21 34.93 23.8 30.73 23.8 25.54 C 23.8 21.85 21.46 18.66 18.06 17.13 C 18.06 17.13 18.06 13.62 18.06 13.62 C 23.32 15.36 27.09 20.04 27.09 25.54 C 27.09 32.54 21.03 38.2 13.54 38.2 Z" />
    <path fill="#ffffff" fill-rule="evenodd" d="M 10.59 21.28 C 9.23 21.28 7.93 21.04 6.72 20.65 C 6.72 20.65 6.72 16.87 6.72 16.87 C 7.9 17.45 9.24 17.79 10.67 17.79 C 15.2 17.79 18.88 14.5 18.88 10.44 C 18.88 6.38 15.2 3.09 10.67 3.09 C 8.01 3.09 5.65 4.23 4.15 6 C 4.15 6 4.15 1.81 4.15 1.81 C 5.99 0.67 8.2 0.01 10.59 0.01 C 16.98 0.01 22.17 4.77 22.17 10.65 C 22.17 16.52 16.98 21.28 10.59 21.28 Z" />
</svg>